%YAML 1.1
%TAG !u! tag:unity3d.com,2011:
--- !u!1045 &1
EditorBuildSettings:
  m_ObjectHideFlags: 0
  serializedVersion: 2
  m_Scenes:
  - enabled: 1
    path: Assets/Scenes/MainMenu.unity
    guid: 9db14eb688f554aa099e4929ae5cbbcc
  - enabled: 1
    path: Assets/Scenes/Tutorial.unity
    guid: 1ab3bccb817434eb8994f3b56cccc60a
  - enabled: 1
    path: Assets/Scenes/TapeKitchen.unity
    guid: 6c8395b44d45c6e49a133c4a70fa25e1
  m_configObjects:
    com.unity.input.settings: {fileID: 11400000, guid: 8f6ac72d16ca4a64bb208bf708fd2884,
      type: 2}
